…
California has the most Denny’s locations while Delaware has the fewest.
The huge number in California is not surprising because Denny’s started
in California and its founder Harold Butler is also from California.
Delaware is not very surprising either because it is not one of those
big cities where economy is booming.

``` r
dennys %>% 
  group_by(state) %>% 
  count() %>% 
  arrange(desc(n))
```

    ## # A tibble: 51 × 2
    ## # Groups:   state [51]
    ##    state     n
    ##    <chr> <int>
    ##  1 CA      403
    ##  2 TX      200
    ##  3 FL      140
    ##  4 AZ       83
    ##  5 IL       56
    ##  6 NY       56
    ##  7 WA       49
    ##  8 OH       44
    ##  9 MO       42
    ## 10 PA       40
    ## # … with 41 more rows
…
``` r
laquinta %>% 
  group_by(state) %>% 
  count() %>% 
  arrange(desc(n))
```

    ## # A tibble: 48 × 2
    ## # Groups:   state [48]
    ##    state     n
    ##    <chr> <int>
    ##  1 TX      237
    ##  2 FL       74
    ##  3 CA       56
    ##  4 GA       41
    ##  5 TN       30
    ##  6 OK       29
    ##  7 LA       28
    ##  8 CO       27
    ##  9 NM       19
    ## 10 NY       19
    ## # … with 38 more rows

Before moving on, let’s test this code:

``` r
dennys %>%
  count(state) %>%
  inner_join(states, by = c("state" = "abbreviation"))
```

    ## # A tibble: 51 × 4
    ##    state     n name                     area
    ##    <chr> <int> <chr>                   <dbl>
    ##  1 AK        3 Alaska               665384. 
    ##  2 AL        7 Alabama               52420. 
    ##  3 AR        9 Arkansas              53179. 
    ##  4 AZ       83 Arizona              113990. 
    ##  5 CA      403 California           163695. 
    ##  6 CO       29 Colorado             104094. 
    ##  7 CT       12 Connecticut            5543. 
    ##  8 DC        2 District of Columbia     68.3
    ##  9 DE        1 Delaware               2489. 
    ## 10 FL      140 Florida               65758. 
    ## # … with 41 more rows
…
The District of Columbia has the most Denny’s locations per thousand
square miles.

``` r
dennys %>%
  count(state) %>%
  inner_join(states, by = c("state" = "abbreviation")) %>% 
  summarise(state = state, 
            name = name,
            location_per_thousand_sm = n / area * 1000) %>% 
  arrange(desc(location_per_thousand_sm))
```

    ## # A tibble: 51 × 3
    ##    state name                 location_per_thousand_sm
    ##    <chr> <chr>                                   <dbl>
    ##  1 DC    District of Columbia                   29.3  
    ##  2 RI    Rhode Island                            3.24 
    ##  3 CA    California                              2.46 
    ##  4 CT    Connecticut                             2.16 
    ##  5 FL    Florida                                 2.13 
    ##  6 MD    Maryland                                2.10 
    ##  7 NJ    New Jersey                              1.15 
    ##  8 NY    New York                                1.03 
    ##  9 IN    Indiana                                 1.02 
    ## 10 OH    Ohio                                    0.982
    ## # … with 41 more rows

Rhode Island has the most La Quinta locations per thousand square miles.

``` r
laquinta %>%
  count(state) %>%
  inner_join(states, by = c("state" = "abbreviation")) %>% 
  summarise(state = state, 
            name = name,
            location_per_thousand_sm = n / area * 1000) %>% 
  arrange(desc(location_per_thousand_sm))
```

    ## # A tibble: 48 × 3
    ##    state name          location_per_thousand_sm
    ##    <chr> <chr>                            <dbl>
    ##  1 RI    Rhode Island                     1.29 
    ##  2 FL    Florida                          1.13 
    ##  3 CT    Connecticut                      1.08 
    ##  4 MD    Maryland                         1.05 
    ##  5 TX    Texas                            0.882
    ##  6 TN    Tennessee                        0.712
    ##  7 GA    Georgia                          0.690
    ##  8 NJ    New Jersey                       0.573
    ##  9 MA    Massachusetts                    0.568
    ## 10 LA    Louisiana                        0.535
    ## # … with 38 more rows
…
